Configuring a Database and Writing Queries in R
…
mdl_folds <- vfold_cv(mdl_train, strata = "result", v = 5)

Create the recipe for the models.

# create recipe
mdl_recipe <- recipe(
  result ~ goals + shots + shotsOnTarget + deep + corners, 
  data = mdl_train) %>% 
  step_upsample(result) %>%
  step_dummy(all_nominal_predictors()) %>%  # dummy-code all nominal preds
  step_normalize(all_numeric_predictors())  # normalize preds

prep(mdl_recipe) %>% bake(new_data = mdl_train)  # prep and bake recipe

# A tibble: 20,286 × 6
    goals  shots shotsOnTarget   deep corners result
    <dbl>  <dbl>         <dbl>  <dbl>   <dbl> <fct> 
 1 -1.09  -0.673        -0.109  1.05  -1.05   0     
 2 -1.09  -0.281        -0.932  1.30   0.365  0     
 3 -0.270  0.894         0.714 -0.191 -1.40   0     
 4 -1.09   1.87          0.714  1.30   0.0116 0     
 5 -1.09  -1.06         -1.34  -0.936 -0.696  0     
 6 -1.09  -0.673        -0.932 -0.439  0.365  0     
 7 -1.09  -1.46         -1.34  -0.688 -0.696  0     
 8 -1.09   0.894        -0.109  1.05   1.43   0     
 9 -0.270 -1.26         -0.932 -0.936  0.365  0     
10 -1.09  -1.65         -0.932 -1.43  -0.342  0     
# ℹ 20,276 more rows
…
# manually inspect model performance by number of neighbors
collect_metrics(tune_xg)

# A tibble: 250 × 9
    mtry trees   learn_rate .metric  .estimator  mean     n   std_err .config   
   <int> <int>        <dbl> <chr>    <chr>      <dbl> <int>     <dbl> <chr>     
 1     1   200 0.0000000001 accuracy multiclass 0.375     5 0.0000195 Preproces…
 2     1   200 0.0000000001 roc_auc  hand_till  0.5       5 0         Preproces…
 3     1   300 0.0000000001 accuracy multiclass 0.375     5 0.0000195 Preproces…
 4     1   300 0.0000000001 roc_auc  hand_till  0.5       5 0         Preproces…
 5     1   400 0.0000000001 accuracy multiclass 0.375     5 0.0000195 Preproces…
 6     1   400 0.0000000001 roc_auc  hand_till  0.5       5 0         Preproces…
 7     1   500 0.0000000001 accuracy multiclass 0.375     5 0.0000195 Preproces…
 8     1   500 0.0000000001 roc_auc  hand_till  0.5       5 0         Preproces…
 9     1   600 0.0000000001 accuracy multiclass 0.375     5 0.0000195 Preproces…
10     1   600 0.0000000001 roc_auc  hand_till  0.5       5 0         Preproces…
# ℹ 240 more rows
…
